(module DIP-18__300 (layer F.Cu)
  (at 0 0)
  (descr "8 pins DIL package, round pads")
  (fp_text reference REF** (at -7.62 -1.27) (layer F.SilkS)
    (effects (font (size 1 1) (thickness 0.15)))
  )
  (fp_text value DIP-18__300 (at 5.08 1.27) (layer F.Fab)
    (effects (font (size 1 1) (thickness 0.15)))
  )
  (fp_line (start -12.7 -1.27) (end -11.43 -1.27) (layer F.SilkS) (width 0.15))
  (fp_line (start -11.43 -1.27) (end -11.43 1.27) (layer F.SilkS) (width 0.15))
  (fp_line (start -11.43 1.27) (end -12.7 1.27) (layer F.SilkS) (width 0.15))
  (fp_line (start -12.7 -2.54) (end 12.7 -2.54) (layer F.SilkS) (width 0.15))
  (fp_line (start 12.7 -2.54) (end 12.7 2.54) (layer F.SilkS) (width 0.15))
  (fp_line (start 12.7 2.54) (end -12.7 2.54) (layer F.SilkS) (width 0.15))
  (fp_line (start -12.7 2.54) (end -12.7 -2.54) (layer F.SilkS) (width 0.15))
  (pad 1 thru_hole rect (at -10.16 3.81) (size 1.397 1.397) (drill 0.8128) (layers *.Cu *.Mask F.SilkS))
  (pad 2 thru_hole circle (at -7.62 3.81) (size 1.397 1.397) (drill 0.8128) (layers *.Cu *.Mask F.SilkS))
  (pad 3 thru_hole circle (at -5.08 3.81) (size 1.397 1.397) (drill 0.8128) (layers *.Cu *.Mask F.SilkS))
  (pad 4 thru_hole circle (at -2.54 3.81) (size 1.397 1.397) (drill 0.8128) (layers *.Cu *.Mask F.SilkS))
  (pad 5 thru_hole circle (at 0 3.81) (size 1.397 1.397) (drill 0.8128) (layers *.Cu *.Mask F.SilkS))
  (pad 6 thru_hole circle (at 2.54 3.81) (size 1.397 1.397) (drill 0.8128) (layers *.Cu *.Mask F.SilkS))
  (pad 7 thru_hole circle (at 5.08 3.81) (size 1.397 1.397) (drill 0.8128) (layers *.Cu *.Mask F.SilkS))
  (pad 8 thru_hole circle (at 7.62 3.81) (size 1.397 1.397) (drill 0.8128) (layers *.Cu *.Mask F.SilkS))
  (pad 9 thru_hole circle (at 10.16 3.81) (size 1.397 1.397) (drill 0.8128) (layers *.Cu *.Mask F.SilkS))
  (pad 10 thru_hole circle (at 10.16 -3.81) (size 1.397 1.397) (drill 0.8128) (layers *.Cu *.Mask F.SilkS))
  (pad 11 thru_hole circle (at 7.62 -3.81) (size 1.397 1.397) (drill 0.8128) (layers *.Cu *.Mask F.SilkS))
  (pad 12 thru_hole circle (at 5.08 -3.81) (size 1.397 1.397) (drill 0.8128) (layers *.Cu *.Mask F.SilkS))
  (pad 13 thru_hole circle (at 2.54 -3.81) (size 1.397 1.397) (drill 0.8128) (layers *.Cu *.Mask F.SilkS))
  (pad 14 thru_hole circle (at 0 -3.81) (size 1.397 1.397) (drill 0.8128) (layers *.Cu *.Mask F.SilkS))
  (pad 15 thru_hole circle (at -2.54 -3.81) (size 1.397 1.397) (drill 0.8128) (layers *.Cu *.Mask F.SilkS))
  (pad 16 thru_hole circle (at -5.08 -3.81) (size 1.397 1.397) (drill 0.8128) (layers *.Cu *.Mask F.SilkS))
  (pad 17 thru_hole circle (at -7.62 -3.81) (size 1.397 1.397) (drill 0.8128) (layers *.Cu *.Mask F.SilkS))
  (pad 18 thru_hole circle (at -10.16 -3.81) (size 1.397 1.397) (drill 0.8128) (layers *.Cu *.Mask F.SilkS))
  (model Sockets_DIP.3dshapes/DIP-18__300.wrl
    (at (xyz 0 0 0))
    (scale (xyz 1 1 1))
    (rotate (xyz 0 0 0))
  )
)
