(module DIP-64__900 (layer F.Cu)
  (at 0 0)
  (descr "Module Dil 64 pins, pads ronds, e=900 mils")
  (tags DIL)
  (fp_text reference REF** (at -31.75 -5.08) (layer F.SilkS)
    (effects (font (size 1 1) (thickness 0.15)))
  )
  (fp_text value DIP-64__900 (at 21.59 3.81) (layer F.Fab)
    (effects (font (size 1 1) (thickness 0.15)))
  )
  (fp_line (start -41.91 1.27) (end -40.64 1.27) (layer F.SilkS) (width 0.15))
  (fp_line (start -40.64 1.27) (end -40.64 -1.27) (layer F.SilkS) (width 0.15))
  (fp_line (start -40.64 -1.27) (end -41.91 -1.27) (layer F.SilkS) (width 0.15))
  (fp_line (start -41.91 -10.16) (end 41.91 -10.16) (layer F.SilkS) (width 0.15))
  (fp_line (start 41.91 -10.16) (end 41.91 10.16) (layer F.SilkS) (width 0.15))
  (fp_line (start 41.91 10.16) (end -41.91 10.16) (layer F.SilkS) (width 0.15))
  (fp_line (start -41.91 10.16) (end -41.91 -10.16) (layer F.SilkS) (width 0.15))
  (pad 1 thru_hole rect (at -39.37 11.43) (size 1.397 1.397) (drill 0.8128) (layers *.Cu *.SilkS *.Mask))
  (pad 2 thru_hole circle (at -36.83 11.43) (size 1.397 1.397) (drill 0.8128) (layers *.Cu *.Mask F.SilkS))
  (pad 3 thru_hole circle (at -34.29 11.43) (size 1.397 1.397) (drill 0.8128) (layers *.Cu *.Mask F.SilkS))
  (pad 4 thru_hole circle (at -31.75 11.43) (size 1.397 1.397) (drill 0.8128) (layers *.Cu *.Mask F.SilkS))
  (pad 5 thru_hole circle (at -29.21 11.43) (size 1.397 1.397) (drill 0.8128) (layers *.Cu *.Mask F.SilkS))
  (pad 6 thru_hole circle (at -26.67 11.43) (size 1.397 1.397) (drill 0.8128) (layers *.Cu *.Mask F.SilkS))
  (pad 7 thru_hole circle (at -24.13 11.43) (size 1.397 1.397) (drill 0.8128) (layers *.Cu *.Mask F.SilkS))
  (pad 8 thru_hole circle (at -21.59 11.43) (size 1.397 1.397) (drill 0.8128) (layers *.Cu *.Mask F.SilkS))
  (pad 9 thru_hole circle (at -19.05 11.43) (size 1.397 1.397) (drill 0.8128) (layers *.Cu *.Mask F.SilkS))
  (pad 10 thru_hole circle (at -16.51 11.43) (size 1.397 1.397) (drill 0.8128) (layers *.Cu *.Mask F.SilkS))
  (pad 11 thru_hole circle (at -13.97 11.43) (size 1.397 1.397) (drill 0.8128) (layers *.Cu *.Mask F.SilkS))
  (pad 12 thru_hole circle (at -11.43 11.43) (size 1.397 1.397) (drill 0.8128) (layers *.Cu *.Mask F.SilkS))
  (pad 13 thru_hole circle (at -8.89 11.43) (size 1.397 1.397) (drill 0.8128) (layers *.Cu *.Mask F.SilkS))
  (pad 14 thru_hole circle (at -6.35 11.43) (size 1.397 1.397) (drill 0.8128) (layers *.Cu *.Mask F.SilkS))
  (pad 15 thru_hole circle (at -3.81 11.43) (size 1.397 1.397) (drill 0.8128) (layers *.Cu *.Mask F.SilkS))
  (pad 16 thru_hole circle (at -1.27 11.43) (size 1.397 1.397) (drill 0.8128) (layers *.Cu *.Mask F.SilkS))
  (pad 17 thru_hole circle (at 1.27 11.43) (size 1.397 1.397) (drill 0.8128) (layers *.Cu *.Mask F.SilkS))
  (pad 18 thru_hole circle (at 3.81 11.43) (size 1.397 1.397) (drill 0.8128) (layers *.Cu *.Mask F.SilkS))
  (pad 19 thru_hole circle (at 6.35 11.43) (size 1.397 1.397) (drill 0.8128) (layers *.Cu *.Mask F.SilkS))
  (pad 20 thru_hole circle (at 8.89 11.43) (size 1.397 1.397) (drill 0.8128) (layers *.Cu *.Mask F.SilkS))
  (pad 21 thru_hole circle (at 11.43 11.43) (size 1.397 1.397) (drill 0.8128) (layers *.Cu *.Mask F.SilkS))
  (pad 22 thru_hole circle (at 13.97 11.43) (size 1.397 1.397) (drill 0.8128) (layers *.Cu *.Mask F.SilkS))
  (pad 23 thru_hole circle (at 16.51 11.43) (size 1.397 1.397) (drill 0.8128) (layers *.Cu *.Mask F.SilkS))
  (pad 24 thru_hole circle (at 19.05 11.43) (size 1.397 1.397) (drill 0.8128) (layers *.Cu *.Mask F.SilkS))
  (pad 25 thru_hole circle (at 21.59 11.43) (size 1.397 1.397) (drill 0.8128) (layers *.Cu *.Mask F.SilkS))
  (pad 26 thru_hole circle (at 24.13 11.43) (size 1.397 1.397) (drill 0.8128) (layers *.Cu *.Mask F.SilkS))
  (pad 27 thru_hole circle (at 26.67 11.43) (size 1.397 1.397) (drill 0.8128) (layers *.Cu *.Mask F.SilkS))
  (pad 28 thru_hole circle (at 29.21 11.43) (size 1.397 1.397) (drill 0.8128) (layers *.Cu *.Mask F.SilkS))
  (pad 29 thru_hole circle (at 31.75 11.43) (size 1.397 1.397) (drill 0.8128) (layers *.Cu *.Mask F.SilkS))
  (pad 30 thru_hole circle (at 34.29 11.43) (size 1.397 1.397) (drill 0.8128) (layers *.Cu *.Mask F.SilkS))
  (pad 31 thru_hole circle (at 36.83 11.43) (size 1.397 1.397) (drill 0.8128) (layers *.Cu *.Mask F.SilkS))
  (pad 32 thru_hole circle (at 39.37 11.43) (size 1.397 1.397) (drill 0.8128) (layers *.Cu *.Mask F.SilkS))
  (pad 33 thru_hole circle (at 39.37 -11.43) (size 1.397 1.397) (drill 0.8128) (layers *.Cu *.Mask F.SilkS))
  (pad 34 thru_hole circle (at 36.83 -11.43) (size 1.397 1.397) (drill 0.8128) (layers *.Cu *.Mask F.SilkS))
  (pad 35 thru_hole circle (at 34.29 -11.43) (size 1.397 1.397) (drill 0.8128) (layers *.Cu *.Mask F.SilkS))
  (pad 36 thru_hole circle (at 31.75 -11.43) (size 1.397 1.397) (drill 0.8128) (layers *.Cu *.Mask F.SilkS))
  (pad 37 thru_hole circle (at 29.21 -11.43) (size 1.397 1.397) (drill 0.8128) (layers *.Cu *.Mask F.SilkS))
  (pad 38 thru_hole circle (at 26.67 -11.43) (size 1.397 1.397) (drill 0.8128) (layers *.Cu *.Mask F.SilkS))
  (pad 39 thru_hole circle (at 24.13 -11.43) (size 1.397 1.397) (drill 0.8128) (layers *.Cu *.Mask F.SilkS))
  (pad 40 thru_hole circle (at 21.59 -11.43) (size 1.397 1.397) (drill 0.8128) (layers *.Cu *.Mask F.SilkS))
  (pad 41 thru_hole circle (at 19.05 -11.43) (size 1.397 1.397) (drill 0.8128) (layers *.Cu *.Mask F.SilkS))
  (pad 42 thru_hole circle (at 16.51 -11.43) (size 1.397 1.397) (drill 0.8128) (layers *.Cu *.Mask F.SilkS))
  (pad 43 thru_hole circle (at 13.97 -11.43) (size 1.397 1.397) (drill 0.8128) (layers *.Cu *.Mask F.SilkS))
  (pad 44 thru_hole circle (at 11.43 -11.43) (size 1.397 1.397) (drill 0.8128) (layers *.Cu *.Mask F.SilkS))
  (pad 45 thru_hole circle (at 8.89 -11.43) (size 1.397 1.397) (drill 0.8128) (layers *.Cu *.Mask F.SilkS))
  (pad 46 thru_hole circle (at 6.35 -11.43) (size 1.397 1.397) (drill 0.8128) (layers *.Cu *.Mask F.SilkS))
  (pad 47 thru_hole circle (at 3.81 -11.43) (size 1.397 1.397) (drill 0.8128) (layers *.Cu *.Mask F.SilkS))
  (pad 48 thru_hole circle (at 1.27 -11.43) (size 1.397 1.397) (drill 0.8128) (layers *.Cu *.Mask F.SilkS))
  (pad 49 thru_hole circle (at -1.27 -11.43) (size 1.397 1.397) (drill 0.8128) (layers *.Cu *.Mask F.SilkS))
  (pad 50 thru_hole circle (at -3.81 -11.43) (size 1.397 1.397) (drill 0.8128) (layers *.Cu *.Mask F.SilkS))
  (pad 51 thru_hole circle (at -6.35 -11.43) (size 1.397 1.397) (drill 0.8128) (layers *.Cu *.Mask F.SilkS))
  (pad 52 thru_hole circle (at -8.89 -11.43) (size 1.397 1.397) (drill 0.8128) (layers *.Cu *.Mask F.SilkS))
  (pad 53 thru_hole circle (at -11.43 -11.43) (size 1.397 1.397) (drill 0.8128) (layers *.Cu *.Mask F.SilkS))
  (pad 54 thru_hole circle (at -13.97 -11.43) (size 1.397 1.397) (drill 0.8128) (layers *.Cu *.Mask F.SilkS))
  (pad 55 thru_hole circle (at -16.51 -11.43) (size 1.397 1.397) (drill 0.8128) (layers *.Cu *.Mask F.SilkS))
  (pad 56 thru_hole circle (at -19.05 -11.43) (size 1.397 1.397) (drill 0.8128) (layers *.Cu *.Mask F.SilkS))
  (pad 57 thru_hole circle (at -21.59 -11.43) (size 1.397 1.397) (drill 0.8128) (layers *.Cu *.Mask F.SilkS))
  (pad 58 thru_hole circle (at -24.13 -11.43) (size 1.397 1.397) (drill 0.8128) (layers *.Cu *.Mask F.SilkS))
  (pad 59 thru_hole circle (at -26.67 -11.43) (size 1.397 1.397) (drill 0.8128) (layers *.Cu *.Mask F.SilkS))
  (pad 60 thru_hole circle (at -29.21 -11.43) (size 1.397 1.397) (drill 0.8128) (layers *.Cu *.Mask F.SilkS))
  (pad 61 thru_hole circle (at -31.75 -11.43) (size 1.397 1.397) (drill 0.8128) (layers *.Cu *.Mask F.SilkS))
  (pad 62 thru_hole circle (at -34.29 -11.43) (size 1.397 1.397) (drill 0.8128) (layers *.Cu *.Mask F.SilkS))
  (pad 63 thru_hole circle (at -36.83 -11.43) (size 1.397 1.397) (drill 0.8128) (layers *.Cu *.Mask F.SilkS))
  (pad 64 thru_hole circle (at -39.37 -11.43) (size 1.397 1.397) (drill 0.8128) (layers *.Cu *.Mask F.SilkS))
  (model Sockets_DIP.3dshapes/DIP-64__900.wrl
    (at (xyz 0 0 0))
    (scale (xyz 1 1.5 1))
    (rotate (xyz 0 0 0))
  )
)
