(module TO-78_Housing_6Pin (layer F.Cu)
  (at 0 0)
  (descr "TO-78, 6 Pin,")
  (tags "TO-78, 6 Pin,")
  (fp_text reference REF** (at 0.15 -6.475) (layer F.SilkS)
    (effects (font (size 1 1) (thickness 0.15)))
  )
  (fp_text value TO-78_Housing_6Pin (at -0.8 7.475) (layer F.Fab)
    (effects (font (size 1 1) (thickness 0.15)))
  )
  (fp_line (start 3.8875 3.8125) (end 3.5375 4.1625) (layer F.SilkS) (width 0.15))
  (fp_line (start 3.5375 4.1625) (end 3.0375 3.5875) (layer F.SilkS) (width 0.15))
  (fp_line (start 3.8875 3.8125) (end 4.2625 3.4375) (layer F.SilkS) (width 0.15))
  (fp_line (start 4.2625 3.4375) (end 3.7125 2.9125) (layer F.SilkS) (width 0.15))
  (fp_circle (center 0.0125 -0.0625) (end 0.0125 -4.3125) (layer F.SilkS) (width 0.15))
  (fp_circle (center 0.0125 -0.0625) (end 0.0125 -4.7625) (layer F.SilkS) (width 0.15))
  (pad 7 thru_hole circle (at 0.0125 2.9375 90) (size 1.524 1.524) (drill 0.85) (layers *.Cu *.Mask F.SilkS))
  (pad 3 thru_hole circle (at 0.0125 -3.0625 90) (size 1.524 1.524) (drill 0.85) (layers *.Cu *.Mask F.SilkS))
  (pad 2 thru_hole circle (at 2.1375 -2.1875 90) (size 1.524 1.524) (drill 0.85) (layers *.Cu *.Mask F.SilkS))
  (pad 6 thru_hole circle (at -2.1125 2.0625 90) (size 1.524 1.524) (drill 0.85) (layers *.Cu *.Mask F.SilkS))
  (pad 4 thru_hole circle (at -2.1125 -2.1875 90) (size 1.524 1.524) (drill 0.85) (layers *.Cu *.Mask F.SilkS))
  (pad 8 thru_hole circle (at 2.1375 2.0625 90) (size 1.524 1.524) (drill 0.85) (layers *.Cu *.Mask F.SilkS))
  (model Housings_TO-78.3dshapes/TO-78_Housing_6Pin.wrl
    (at (xyz 0 0 0))
    (scale (xyz 0.3937 0.3937 0.3937))
    (rotate (xyz 0 0 0))
  )
)
