(module LEDs:LED-1206 (layer F.Cu) (tedit 56FBCE2F)
  (descr "LED 1206 smd package")
  (tags "LED1206 SMD")
  (attr smd)
  (fp_text reference D2 (at 0.254 -1.524) (layer F.SilkS)
    (effects (font (size 1 1) (thickness 0.15)))
  )
  (fp_text value LED (at 0 1.65) (layer F.Fab)
    (effects (font (size 1 1) (thickness 0.15)))
  )
  (fp_line (start 0.25 0.25) (end 0.25 -0.25) (layer F.SilkS) (width 0.15))
  (fp_line (start -0.25 0) (end 0.25 0.25) (layer F.SilkS) (width 0.15))
  (fp_line (start 0.25 -0.25) (end -0.25 0) (layer F.SilkS) (width 0.15))
  (fp_line (start -0.44958 0.6985) (end -0.79756 0.6985) (layer F.SilkS) (width 0.15))
  (fp_line (start -0.79756 0.6985) (end -0.79756 0.44958) (layer F.SilkS) (width 0.15))
  (fp_line (start -0.44958 0.44958) (end -0.79756 0.44958) (layer F.SilkS) (width 0.15))
  (fp_line (start -0.44958 0.6985) (end -0.44958 0.44958) (layer F.SilkS) (width 0.15))
  (fp_line (start -0.79756 0.6985) (end -0.89916 0.6985) (layer F.SilkS) (width 0.15))
  (fp_line (start -0.89916 0.6985) (end -0.89916 -0.49784) (layer F.SilkS) (width 0.15))
  (fp_line (start -0.79756 -0.49784) (end -0.89916 -0.49784) (layer F.SilkS) (width 0.15))
  (fp_line (start -0.79756 0.6985) (end -0.79756 -0.49784) (layer F.SilkS) (width 0.15))
  (fp_line (start -0.79756 -0.54864) (end -0.89916 -0.54864) (layer F.SilkS) (width 0.15))
  (fp_line (start -0.89916 -0.54864) (end -0.89916 -0.6985) (layer F.SilkS) (width 0.15))
  (fp_line (start -0.79756 -0.6985) (end -0.89916 -0.6985) (layer F.SilkS) (width 0.15))
  (fp_line (start -0.79756 -0.54864) (end -0.79756 -0.6985) (layer F.SilkS) (width 0.15))
  (fp_line (start 0.89916 0.6985) (end 0.79756 0.6985) (layer F.SilkS) (width 0.15))
  (fp_line (start 0.79756 0.6985) (end 0.79756 -0.49784) (layer F.SilkS) (width 0.15))
  (fp_line (start 0.89916 -0.49784) (end 0.79756 -0.49784) (layer F.SilkS) (width 0.15))
  (fp_line (start 0.89916 0.6985) (end 0.89916 -0.49784) (layer F.SilkS) (width 0.15))
  (fp_line (start 0.89916 -0.54864) (end 0.79756 -0.54864) (layer F.SilkS) (width 0.15))
  (fp_line (start 0.79756 -0.54864) (end 0.79756 -0.6985) (layer F.SilkS) (width 0.15))
  (fp_line (start 0.89916 -0.6985) (end 0.79756 -0.6985) (layer F.SilkS) (width 0.15))
  (fp_line (start 0.89916 -0.54864) (end 0.89916 -0.6985) (layer F.SilkS) (width 0.15))
  (fp_line (start -0.44958 0.6985) (end -0.59944 0.6985) (layer F.SilkS) (width 0.15))
  (fp_line (start -0.59944 0.6985) (end -0.59944 0.44958) (layer F.SilkS) (width 0.15))
  (fp_line (start -0.44958 0.44958) (end -0.59944 0.44958) (layer F.SilkS) (width 0.15))
  (fp_line (start -0.44958 0.6985) (end -0.44958 0.44958) (layer F.SilkS) (width 0.15))
  (fp_line (start -1.5494 0.7493) (end 1.5494 0.7493) (layer F.SilkS) (width 0.15))
  (fp_line (start 1.5494 0.7493) (end 1.5494 -0.7493) (layer F.SilkS) (width 0.15))
  (fp_line (start 1.5494 -0.7493) (end -1.5494 -0.7493) (layer F.SilkS) (width 0.15))
  (fp_line (start -1.5494 -0.7493) (end -1.5494 0.7493) (layer F.SilkS) (width 0.15))
  (fp_arc (start 0 0) (end -0.54864 0.49784) (angle -95.4) (layer F.SilkS) (width 0.15))
  (fp_arc (start 0 0) (end 0.54864 0.49784) (angle -84.5) (layer F.SilkS) (width 0.15))
  (fp_arc (start 0 0) (end 0.54864 -0.49784) (angle -95.4) (layer F.SilkS) (width 0.15))
  (fp_arc (start 0 0) (end -0.54864 -0.49784) (angle -84.5) (layer F.SilkS) (width 0.15))
  (pad 2 smd rect (at 1.41986 0 180) (size 1.59766 1.80086) (layers F.Cu F.Paste F.Mask))
  (pad 1 smd rect (at -1.41986 0 180) (size 1.59766 1.80086) (layers F.Cu F.Paste F.Mask))
)
