(module Elko_vert_20x10mm_RM2.5to5_CopperClear (layer F.Cu)
  (at 0 0)
  (descr "Electrolytic Capacitor, vertical, diameter 10mm, RM 2,5-5mm, Copper without +, radial,")
  (tags "Electrolytic Capacitor, vertical, diameter 10mm, RM 2,5-5mm, Elko, Electrolytkondensator, Kondensator gepolt, Durchmesser 10mm, Copper without +,  radial,")
  (fp_text reference REF** (at 0 -6.35) (layer F.SilkS)
    (effects (font (size 1 1) (thickness 0.15)))
  )
  (fp_text value Elko_vert_20x10mm_RM2.5to5_CopperClear (at 0 6.35) (layer F.Fab)
    (effects (font (size 1 1) (thickness 0.15)))
  )
  (fp_line (start -2.032 -3.683) (end -2.032 -2.413) (layer F.SilkS) (width 0.15))
  (fp_line (start -2.667 -3.048) (end -1.397 -3.048) (layer F.SilkS) (width 0.15))
  (fp_circle (center 0 0) (end 5.08 0) (layer F.SilkS) (width 0.15))
  (pad 1 thru_hole circle (at -1.27 0) (size 1.99898 1.99898) (drill 1.00076) (layers *.Cu *.Mask F.SilkS))
  (pad 1 thru_hole circle (at -1.99898 1.50114) (size 1.99898 1.99898) (drill 1.00076) (layers *.Cu *.Mask F.SilkS))
  (pad 2 thru_hole circle (at 1.27 0) (size 1.99898 1.99898) (drill 1.00076) (layers *.Cu *.Mask F.SilkS))
  (pad 2 thru_hole circle (at 1.99898 -1.50114) (size 1.99898 1.99898) (drill 1.00076) (layers *.Cu *.Mask F.SilkS))
)
