(module Neosid_Air-Coil_SML_2turn_HDM0231A (layer F.Cu)
  (at 0 0)
  (descr "Neosid, Air-Coil, SML, 2turn, HDM0231A,")
  (tags "Neosid, Air-Coil, SML, 2turn, HDM0231A,")
  (attr smd)
  (fp_text reference REF** (at -0.14986 -6.14934) (layer F.SilkS)
    (effects (font (size 1 1) (thickness 0.15)))
  )
  (fp_text value Neosid_Air-Coil_SML_2turn_HDM0231A (at 0 5.4991) (layer F.Fab)
    (effects (font (size 1 1) (thickness 0.15)))
  )
  (fp_line (start 0 -1.6002) (end 1.50114 1.6002) (layer F.SilkS) (width 0.15))
  (fp_line (start -1.45034 -1.6002) (end 0 1.6002) (layer F.SilkS) (width 0.15))
  (fp_line (start 0 -1.6002) (end 0 1.6002) (layer F.SilkS) (width 0.15))
  (fp_line (start -1.45034 -1.6002) (end -1.45034 2.14884) (layer F.SilkS) (width 0.15))
  (fp_line (start 1.50114 1.6002) (end 1.50114 -2.25044) (layer F.SilkS) (width 0.15))
  (pad 1 smd rect (at -1.4605 3.45948) (size 0.59944 1.50114) (layers F.Cu F.Paste F.Mask))
  (pad 2 smd rect (at 1.4605 -3.45948) (size 0.59944 1.50114) (layers F.Cu F.Paste F.Mask))
)
