(module Neosid_Air-Coil_SML_6turn_HAM0631A (layer F.Cu)
  (at 0 0)
  (descr "Neosid, Air-Coil, SML, 6turn, HAM0631A,")
  (tags "Neosid, Air-Coil, SML, 6turn, HAM0631A,")
  (attr smd)
  (fp_text reference REF** (at -0.14986 -4.59994) (layer F.SilkS)
    (effects (font (size 1 1) (thickness 0.15)))
  )
  (fp_text value Neosid_Air-Coil_SML_6turn_HAM0631A (at 0 5.4991) (layer F.Fab)
    (effects (font (size 1 1) (thickness 0.15)))
  )
  (fp_line (start 1.04902 -0.59944) (end 1.45034 0.65024) (layer F.SilkS) (width 0.15))
  (fp_line (start 0.39878 -0.65024) (end 0.8001 0.70104) (layer F.SilkS) (width 0.15))
  (fp_line (start -0.20066 -0.65024) (end 0.14986 0.70104) (layer F.SilkS) (width 0.15))
  (fp_line (start 0.14986 0.70104) (end 0.14986 0.65024) (layer F.SilkS) (width 0.15))
  (fp_line (start -0.8509 -0.65024) (end -0.50038 0.70104) (layer F.SilkS) (width 0.15))
  (fp_line (start -1.5494 -0.70104) (end -1.15062 0.70104) (layer F.SilkS) (width 0.15))
  (fp_line (start -1.15062 0.70104) (end -1.15062 0.65024) (layer F.SilkS) (width 0.15))
  (fp_line (start 1.80086 0.70104) (end -1.80086 0.70104) (layer F.SilkS) (width 0.15))
  (fp_line (start -1.80086 -0.70104) (end 1.80086 -0.70104) (layer F.SilkS) (width 0.15))
  (fp_line (start -1.80086 0.7493) (end -1.80086 1.19888) (layer F.SilkS) (width 0.15))
  (fp_line (start -1.80086 -0.70104) (end -1.80086 0.70104) (layer F.SilkS) (width 0.15))
  (fp_line (start 1.80086 0.70104) (end 1.80086 -1.24968) (layer F.SilkS) (width 0.15))
  (pad 1 smd rect (at -1.8288 2.4511) (size 0.59944 1.50114) (layers F.Cu F.Paste F.Mask))
  (pad 2 smd rect (at 1.8288 -2.4511) (size 0.59944 1.50114) (layers F.Cu F.Paste F.Mask))
)
